draai 90
spring 30
draai -90
draai -90
loop 4
draai 90
loop 3
draai 90
loop 3
draai 180
loop 3
draai 90
loop 3
draai 90
loop 4
draai -90
draai 90
spring -25
draai 90
spring 5
draai 180
draai -225
loop 1
draai -45
loop 1
draai -45
loop 1
draai -45
loop 5
draai -90
loop 1
draai 180
loop 2
draai -90
draai 90
spring -8
draai 90
spring 6
draai 180
draai 270
loop 1
draai -180
loop 2
draai 180
loop 1
draai 90
loop 6
draai 90
loop 1
draai -180
loop 2
draai 90
draai 90
spring 19
draai 90
spring 6
draai 180
loop 6
draai 90
loop 3
draai 45
loop 1
draai 45
loop 1
draai 45
loop 1
draai 45
loop 2
draai -270
draai 90
spring 24
draai 90
spring 3
draai 180
draai -90
loop 4
draai 90
loop 3
draai 90
loop 3
draai 180
loop 3
draai 90
loop 3
draai 90
loop 4
draai -90
draai 90
spring 3
draai -90
draai 180
loop 6
draai -90
loop 4
draai -90
spring 6
draai 90
spring -14
draai -90
draai 270
loop 2
draai -45
loop 2
draai -45
loop 2
draai -45
loop 2
draai -45
loop 2
draai -90
loop 3
draai 270
loop 1
draai 90
draai 90
spring 18
draai 90
spring 3
draai 180
draai 90
loop 3
draai -45
loop 1
draai -45
loop 1
draai -45
loop 1
draai -45
loop 2
draai 45
loop 1
draai 45
loop 1
draai 45
loop 1
draai 45
loop 3
draai -90
draai 90
spring -46
draai 90
spring 6
draai 180
draai 90
loop 3
draai -45
loop 1
draai -45
loop 1
draai -45
loop 1
draai -45
loop 2
draai 45
loop 1
draai 45
loop 1
draai 45
loop 1
draai 45
loop 3
draai -90